{
  "version": 7,
  "group": "daq",
  "components": [
    {
      "name": "readoutinterface01",
      "host": "localhost",
      "port": 5555,
      "type": "ReadoutInterface",
      "loglevel": {"core": "INFO", "module": "INFO"},
      "settings": {
        "board_id": 0,
        "delay_us": 100,
        "payload": {"min": 200, "max": 1500},
        "influxDb_uri": "http://localhost:8086/write?db=",
        "influxDb_name": "DAQlingMetrics"
      },
      "connections": {
        "senders": [
          {
            "type": "pubsub",
            "chid": 0,
            "transport": "tcp",
            "host": "*",
            "port": 8101
          }
        ]
      }
    },
    {
      "name": "readoutinterface02",
      "host": "localhost",
      "port": 5556,
      "type": "ReadoutInterface",
      "loglevel": {"core": "INFO", "module": "INFO"},
      "settings": {
        "board_id": 1,
        "delay_us": 100,
        "payload": {"min": 200, "max": 1500},
        "influxDb_uri": "http://localhost:8086/write?db=",
        "influxDb_name": "DAQlingMetrics"
      },
      "connections": {
        "senders": [
          {
            "type": "pair",
            "chid": 0,
            "transport": "tcp",
            "host": "*",
            "port": 8102
          }
        ]
      }
    },
    {
      "name": "eventbuilder01",
      "host": "localhost",
      "port": 5560,
      "type": "EventBuilder",
      "loglevel": {"core": "INFO", "module": "INFO"},
      "settings": {
        "influxDb_uri": "http://localhost:8086/write?db=",
        "influxDb_name": "DAQlingMetrics"
      },
      "connections": {
        "receivers": [
          {
            "type": "pubsub",
            "chid": 0,
            "transport": "tcp",
            "host": "localhost",
            "port": 8101
          },
          {
            "type": "pair",
            "chid": 1,
            "transport": "tcp",
            "host": "localhost",
            "port": 8102
          }
        ],
        "senders": [
          {
            "type": "pair",
            "chid": 2,
            "transport": "ipc",
            "path": "/tmp/feed3"
          }
        ]
      }
    },
    {
      "name": "filewriter01",
      "host": "localhost",
      "port": 5561,
      "type": "FileWriter",
      "loglevel": {"core": "INFO", "module": "INFO"},
      "settings": {
        "filename_pattern": "/tmp/test-%D.%r.%c.%n.bin",
        "influxDb_uri": "http://localhost:8086/write?db=",
        "influxDb_name": "DAQlingMetrics"
      },
      "connections": {
        "receivers": [
          {
            "type": "pair",
            "chid": 0,
            "transport": "ipc",
            "path": "/tmp/feed3"
          }
        ]
      }
    }
  ]
}

